

   ooooooooo.               ooo        ooooo oooooooooo.  oooooooooooo
   `888   `Y88.             `88.       .888' `888'   `Y8b `888'     `8
    888   .d88' oooo    ooo  888b     d'888   888     888  888
    888ooo88P'   `88.  .8'   8 Y88. .P  888   888oooo888'  888oooo8
    888           `88..8'    8  `888'   888   888    `88b  888    "
    888            `888'     8    Y     888   888    .88P  888       o
   o888o            .8'     o8o        o888o o888bood8P'  o888ooooood8
                .o..P'
                `Y8P'


   -- date & time   : 2020-03-09 & 12:37:20
   -- git version   : 24501d273739aa6cb8a19f37d7cb4f38d22290aa
   -- local masters :
   #### rank / node :      0 / eduroam-6-127.nomadic.bris.ac.uk


                     ---------------------------------------------                     
                                     FCI expansion                                     
                     ---------------------------------------------                     


 --------------------------------------------------------------------------------------------
 STATUS-2:  order k = 2 MBE started  ---  32 tuples in total
 --------------------------------------------------------------------------------------------
 STATUS-2:   [##################################################]   ---  100.00 %
 --------------------------------------------------------------------------------------------
 STATUS-2:   [##################################################]   ---  100.00 %
 --------------------------------------------------------------------------------------------
 STATUS-2:  order k = 2 MBE done in 0.06s  ---  32 tuples retained
 --------------------------------------------------------------------------------------------
 ||||||||||||||||||||||||||||||||||||||||||||||||||||||||||||||||||||||||||||||||||||||||||||
 --------------------------------------------------------------------------------------------
 RESULT-2:                energy for root 0 (total increment = -4.4459e-02)                
 --------------------------------------------------------------------------------------------
 --------------------------------------------------------------------------------------------
 RESULT-2:      mean increment     |      min. abs. increment     |     max. abs. increment
 --------------------------------------------------------------------------------------------
 RESULT-2:       -1.3894e-03       |           1.4791e-05         |          1.0518e-02
 --------------------------------------------------------------------------------------------
 --------------------------------------------------------------------------------------------
 RESULT-2:   mean # determinants   |      min. # determinants     |     max. # determinants
 --------------------------------------------------------------------------------------------
 RESULT-2:        4.000e+00        |           4.000e+00          |          4.000e+00
 --------------------------------------------------------------------------------------------
 ||||||||||||||||||||||||||||||||||||||||||||||||||||||||||||||||||||||||||||||||||||||||||||
 --------------------------------------------------------------------------------------------
 STATUS-2:  order k = 2 purging started
 --------------------------------------------------------------------------------------------
 STATUS-2:  order k = 2 purging done in 0.00s
 --------------------------------------------------------------------------------------------


 --------------------------------------------------------------------------------------------
 STATUS-3:  order k = 3 MBE started  ---  160 tuples in total
 --------------------------------------------------------------------------------------------
 STATUS-3:   [##################################################]   ---  100.00 %
 --------------------------------------------------------------------------------------------
 STATUS-3:   [##################################################]   ---  100.00 %
 --------------------------------------------------------------------------------------------
 STATUS-3:  order k = 3 MBE done in 0.33s  ---  160 tuples retained
 --------------------------------------------------------------------------------------------
 ||||||||||||||||||||||||||||||||||||||||||||||||||||||||||||||||||||||||||||||||||||||||||||
 --------------------------------------------------------------------------------------------
 RESULT-3:                energy for root 0 (total increment = -2.9995e-02)                
 --------------------------------------------------------------------------------------------
 --------------------------------------------------------------------------------------------
 RESULT-3:      mean increment     |      min. abs. increment     |     max. abs. increment
 --------------------------------------------------------------------------------------------
 RESULT-3:       -1.8747e-04       |           5.7795e-08         |          6.7326e-03
 --------------------------------------------------------------------------------------------
 --------------------------------------------------------------------------------------------
 RESULT-3:   mean # determinants   |      min. # determinants     |     max. # determinants
 --------------------------------------------------------------------------------------------
 RESULT-3:        9.000e+00        |           9.000e+00          |          9.000e+00
 --------------------------------------------------------------------------------------------
 ||||||||||||||||||||||||||||||||||||||||||||||||||||||||||||||||||||||||||||||||||||||||||||
 --------------------------------------------------------------------------------------------
 STATUS-3:  order k = 3 purging started
 --------------------------------------------------------------------------------------------
 STATUS-3:  order k = 3 purging done in 0.00s
 --------------------------------------------------------------------------------------------


 --------------------------------------------------------------------------------------------
 STATUS-4:  order k = 4 MBE started  ---  424 tuples in total
 --------------------------------------------------------------------------------------------
 STATUS-4:   [##################################################]   ---  100.00 %
 --------------------------------------------------------------------------------------------
 STATUS-4:   [##################################################]   ---  100.00 %
 --------------------------------------------------------------------------------------------
 STATUS-4:  order k = 4 MBE done in 1.11s  ---  424 tuples retained
 --------------------------------------------------------------------------------------------
 ||||||||||||||||||||||||||||||||||||||||||||||||||||||||||||||||||||||||||||||||||||||||||||
 --------------------------------------------------------------------------------------------
 RESULT-4:                energy for root 0 (total increment = -8.0169e-02)                
 --------------------------------------------------------------------------------------------
 --------------------------------------------------------------------------------------------
 RESULT-4:      mean increment     |      min. abs. increment     |     max. abs. increment
 --------------------------------------------------------------------------------------------
 RESULT-4:       -1.8908e-04       |           4.0066e-09         |          7.1733e-03
 --------------------------------------------------------------------------------------------
 --------------------------------------------------------------------------------------------
 RESULT-4:   mean # determinants   |      min. # determinants     |     max. # determinants
 --------------------------------------------------------------------------------------------
 RESULT-4:        2.400e+01        |           1.600e+01          |          3.600e+01
 --------------------------------------------------------------------------------------------
 ||||||||||||||||||||||||||||||||||||||||||||||||||||||||||||||||||||||||||||||||||||||||||||
 --------------------------------------------------------------------------------------------
 STATUS-4:  order k = 4 purging started
 --------------------------------------------------------------------------------------------
 STATUS-4:  order k = 4 purging done in 0.00s
 --------------------------------------------------------------------------------------------


 --------------------------------------------------------------------------------------------
 STATUS-5:  order k = 5 MBE started  ---  736 tuples in total
 --------------------------------------------------------------------------------------------
 STATUS-5:   [##################################################]   ---  100.00 %
 --------------------------------------------------------------------------------------------
 STATUS-5:   [##################################################]   ---  100.00 %
 --------------------------------------------------------------------------------------------
 STATUS-5:  order k = 5 MBE done in 2.50s  ---  736 tuples retained
 --------------------------------------------------------------------------------------------
 ||||||||||||||||||||||||||||||||||||||||||||||||||||||||||||||||||||||||||||||||||||||||||||
 --------------------------------------------------------------------------------------------
 RESULT-5:                energy for root 0 (total increment = 1.1731e-02)                 
 --------------------------------------------------------------------------------------------
 --------------------------------------------------------------------------------------------
 RESULT-5:      mean increment     |      min. abs. increment     |     max. abs. increment
 --------------------------------------------------------------------------------------------
 RESULT-5:        1.5939e-05       |           2.7677e-10         |          1.0827e-03
 --------------------------------------------------------------------------------------------
 --------------------------------------------------------------------------------------------
 RESULT-5:   mean # determinants   |      min. # determinants     |     max. # determinants
 --------------------------------------------------------------------------------------------
 RESULT-5:        7.100e+01        |           2.500e+01          |          1.000e+02
 --------------------------------------------------------------------------------------------
 ||||||||||||||||||||||||||||||||||||||||||||||||||||||||||||||||||||||||||||||||||||||||||||
 --------------------------------------------------------------------------------------------
 STATUS-5:  order k = 5 purging started
 --------------------------------------------------------------------------------------------
 STATUS-5:  order k = 5 purging done in 0.00s
 --------------------------------------------------------------------------------------------


 --------------------------------------------------------------------------------------------
 STATUS-6:  order k = 6 MBE started  ---  896 tuples in total
 --------------------------------------------------------------------------------------------
 STATUS-6:   [##################################################]   ---  100.00 %
 --------------------------------------------------------------------------------------------
 STATUS-6:   [##################################################]   ---  100.00 %
 --------------------------------------------------------------------------------------------
 STATUS-6:  order k = 6 MBE done in 4.05s  ---  896 tuples retained
 --------------------------------------------------------------------------------------------
 ||||||||||||||||||||||||||||||||||||||||||||||||||||||||||||||||||||||||||||||||||||||||||||
 --------------------------------------------------------------------------------------------
 RESULT-6:                energy for root 0 (total increment = 1.0363e-02)                 
 --------------------------------------------------------------------------------------------
 --------------------------------------------------------------------------------------------
 RESULT-6:      mean increment     |      min. abs. increment     |     max. abs. increment
 --------------------------------------------------------------------------------------------
 RESULT-6:        1.1566e-05       |           2.3826e-10         |          6.6597e-04
 --------------------------------------------------------------------------------------------
 --------------------------------------------------------------------------------------------
 RESULT-6:   mean # determinants   |      min. # determinants     |     max. # determinants
 --------------------------------------------------------------------------------------------
 RESULT-6:        2.220e+02        |           3.600e+01          |          4.000e+02
 --------------------------------------------------------------------------------------------
 ||||||||||||||||||||||||||||||||||||||||||||||||||||||||||||||||||||||||||||||||||||||||||||
 --------------------------------------------------------------------------------------------
 STATUS-6:  order k = 6 purging started
 --------------------------------------------------------------------------------------------
 STATUS-6:  order k = 6 purging done in 0.00s
 --------------------------------------------------------------------------------------------


 --------------------------------------------------------------------------------------------
 STATUS-7:  order k = 7 MBE started  ---  784 tuples in total
 --------------------------------------------------------------------------------------------
 STATUS-7:   [##################################################]   ---  100.00 %
 --------------------------------------------------------------------------------------------
 STATUS-7:   [##################################################]   ---  100.00 %
 --------------------------------------------------------------------------------------------
 STATUS-7:  order k = 7 MBE done in 4.32s  ---  784 tuples retained
 --------------------------------------------------------------------------------------------
 ||||||||||||||||||||||||||||||||||||||||||||||||||||||||||||||||||||||||||||||||||||||||||||
 --------------------------------------------------------------------------------------------
 RESULT-7:                energy for root 0 (total increment = -2.9546e-03)                
 --------------------------------------------------------------------------------------------
 --------------------------------------------------------------------------------------------
 RESULT-7:      mean increment     |      min. abs. increment     |     max. abs. increment
 --------------------------------------------------------------------------------------------
 RESULT-7:       -3.7686e-06       |           2.2837e-11         |          2.9211e-04
 --------------------------------------------------------------------------------------------
 --------------------------------------------------------------------------------------------
 RESULT-7:   mean # determinants   |      min. # determinants     |     max. # determinants
 --------------------------------------------------------------------------------------------
 RESULT-7:        7.210e+02        |           4.900e+01          |          1.225e+03
 --------------------------------------------------------------------------------------------
 ||||||||||||||||||||||||||||||||||||||||||||||||||||||||||||||||||||||||||||||||||||||||||||
 --------------------------------------------------------------------------------------------
 STATUS-7:  order k = 7 purging started
 --------------------------------------------------------------------------------------------
 STATUS-7:  order k = 7 purging done in 0.00s
 --------------------------------------------------------------------------------------------


 --------------------------------------------------------------------------------------------
 STATUS-8:  order k = 8 MBE started  ---  494 tuples in total
 --------------------------------------------------------------------------------------------
 STATUS-8:   [##################################################]   ---  100.00 %
 --------------------------------------------------------------------------------------------
 STATUS-8:   [##################################################]   ---  100.00 %
 --------------------------------------------------------------------------------------------
 STATUS-8:  order k = 8 MBE done in 2.11s  ---  45 tuples retained
 --------------------------------------------------------------------------------------------
 ||||||||||||||||||||||||||||||||||||||||||||||||||||||||||||||||||||||||||||||||||||||||||||
 --------------------------------------------------------------------------------------------
 RESULT-8:                energy for root 0 (total increment = -5.2940e-04)                
 --------------------------------------------------------------------------------------------
 --------------------------------------------------------------------------------------------
 RESULT-8:      mean increment     |      min. abs. increment     |     max. abs. increment
 --------------------------------------------------------------------------------------------
 RESULT-8:       -1.0717e-06       |           2.1316e-12         |          8.6312e-05
 --------------------------------------------------------------------------------------------
 --------------------------------------------------------------------------------------------
 RESULT-8:   mean # determinants   |      min. # determinants     |     max. # determinants
 --------------------------------------------------------------------------------------------
 RESULT-8:        2.387e+03        |           6.400e+01          |          4.900e+03
 --------------------------------------------------------------------------------------------
 ||||||||||||||||||||||||||||||||||||||||||||||||||||||||||||||||||||||||||||||||||||||||||||
 --------------------------------------------------------------------------------------------
 RESULT-8:  screened MOs --- [7]
 RESULT-8:                   [9]
 --------------------------------------------------------------------------------------------
 RESULT-8:  total number of screened MOs: 2
 --------------------------------------------------------------------------------------------
 ||||||||||||||||||||||||||||||||||||||||||||||||||||||||||||||||||||||||||||||||||||||||||||
 --------------------------------------------------------------------------------------------
 STATUS-8:  order k = 8 purging started
 --------------------------------------------------------------------------------------------
 ||||||||||||||||||||||||||||||||||||||||||||||||||||||||||||||||||||||||||||||||||||||||||||
 --------------------------------------------------------------------------------------------
 RESULT-8:  after purging of tuples --- no. of tuples at k =  2 has been reduced by:  25.00 %
 RESULT-8:                              no. of tuples at k =  3 has been reduced by:  40.00 %
 RESULT-8:                              no. of tuples at k =  4 has been reduced by:  54.25 %
 RESULT-8:                              no. of tuples at k =  5 has been reduced by:  66.58 %
 RESULT-8:                              no. of tuples at k =  6 has been reduced by:  76.67 %
 RESULT-8:                              no. of tuples at k =  7 has been reduced by:  84.69 %
 RESULT-8:                              no. of tuples at k =  8 has been reduced by:  90.89 %
 --------------------------------------------------------------------------------------------
 RESULT-8:  total number of reduced tuples: 2592 (73.51 %)
 --------------------------------------------------------------------------------------------
 ||||||||||||||||||||||||||||||||||||||||||||||||||||||||||||||||||||||||||||||||||||||||||||
 --------------------------------------------------------------------------------------------
 STATUS-8:  order k = 8 purging done in 0.02s
 --------------------------------------------------------------------------------------------


 --------------------------------------------------------------------------------------------
 STATUS-9:  order k = 9 MBE started  ---  10 tuples in total
 --------------------------------------------------------------------------------------------
 STATUS-9:   [##################################################]   ---  100.00 %
 --------------------------------------------------------------------------------------------
 STATUS-9:   [##################################################]   ---  100.00 %
 --------------------------------------------------------------------------------------------
 STATUS-9:  order k = 9 MBE done in 0.23s  ---  1 tuples retained
 --------------------------------------------------------------------------------------------
 ||||||||||||||||||||||||||||||||||||||||||||||||||||||||||||||||||||||||||||||||||||||||||||
 --------------------------------------------------------------------------------------------
 RESULT-9:                energy for root 0 (total increment = 2.0760e-04)                 
 --------------------------------------------------------------------------------------------
 --------------------------------------------------------------------------------------------
 RESULT-9:      mean increment     |      min. abs. increment     |     max. abs. increment
 --------------------------------------------------------------------------------------------
 RESULT-9:        2.0760e-05       |           5.1581e-08         |          7.6329e-05
 --------------------------------------------------------------------------------------------
 --------------------------------------------------------------------------------------------
 RESULT-9:   mean # determinants   |      min. # determinants     |     max. # determinants
 --------------------------------------------------------------------------------------------
 RESULT-9:        1.235e+04        |           7.056e+03          |          1.588e+04
 --------------------------------------------------------------------------------------------
 ||||||||||||||||||||||||||||||||||||||||||||||||||||||||||||||||||||||||||||||||||||||||||||
 --------------------------------------------------------------------------------------------
 RESULT-9:  screened MOs --- [11]
 --------------------------------------------------------------------------------------------
 RESULT-9:  total number of screened MOs: 3
 --------------------------------------------------------------------------------------------
 ||||||||||||||||||||||||||||||||||||||||||||||||||||||||||||||||||||||||||||||||||||||||||||
 --------------------------------------------------------------------------------------------
 STATUS-9:  order k = 9 purging started
 --------------------------------------------------------------------------------------------
 STATUS-9:  order k = 9 purging done in 0.00s
 --------------------------------------------------------------------------------------------



