

   ooooooooo.               ooo        ooooo oooooooooo.  oooooooooooo
   `888   `Y88.             `88.       .888' `888'   `Y8b `888'     `8
    888   .d88' oooo    ooo  888b     d'888   888     888  888
    888ooo88P'   `88.  .8'   8 Y88. .P  888   888oooo888'  888oooo8
    888           `88..8'    8  `888'   888   888    `88b  888    "
    888            `888'     8    Y     888   888    .88P  888       o
   o888o            .8'     o8o        o888o o888bood8P'  o888ooooood8
                .o..P'
                `Y8P'


   -- date & time   : 2020-03-09 & 12:37:35
   -- git version   : 24501d273739aa6cb8a19f37d7cb4f38d22290aa



   ------------------------------------
                 geometry                  
   ------------------------------------
   O      0.00000    0.00000    0.10841
   H     -0.75390    0.00000   -0.47943
   H      0.75390    0.00000   -0.47943
   ------------------------------------

   -----------------------------------------------------------------------------------------------------------------------------------------   
              molecular information            |            expansion information           |             calculation information
   -----------------------------------------------------------------------------------------------------------------------------------------   
         basis set           =  631g           |       expansion model  =  FCI              |       mpi masters & slaves    =  1 & 7
         frozen core         =  true           |       reference        =  CASCI            |       Hartree-Fock energy     =  -75.983847
         system size         =  8 e in 12 o    |       reference space  =  0 e, 0 o         |       base model energy       =  -75.983847
         state (mult.)       =  0 (singlet)    |       reference orbs.  =  none             |       MBE total energy        =  -76.119653
         orbitals            =  pipek-mezey    |       base model       =  none             |       total time              =  14.74s
         FCI solver          =  PySCF (spin0)  |       inc. threshold   =  5e-05            |       wave funct. symmetry    =  A(C1)
   -----------------------------------------------------------------------------------------------------------------------------------------   
   |||||||||||||||||||||||||||||||||||||||||||||||||||||||||||||||||||||||||||||||||||||||||||||||||||||||||||||||||||||||||||||||||||||||||   
   -----------------------------------------------------------------------------------------------------------------------------------------   

   -------------------------------------------------------------------------------------------------------------
                                                MBE-FCI timings                                                 
   -------------------------------------------------------------------------------------------------------------
      MBE order  |        MBE        |      purging      |        sum        |    calculations    |     in %
   -------------------------------------------------------------------------------------------------------------
          2      |            0.06s  |            0.00s  |            0.06s  |             32     |    100.00
          3      |            0.33s  |            0.00s  |            0.33s  |            160     |    100.00
          4      |            1.11s  |            0.00s  |            1.11s  |            424     |    100.00
          5      |            2.50s  |            0.00s  |            2.50s  |            736     |    100.00
          6      |            4.05s  |            0.00s  |            4.05s  |            896     |    100.00
          7      |            4.32s  |            0.00s  |            4.32s  |            784     |    100.00
          8      |            2.11s  |            0.02s  |            2.14s  |            494     |    100.00
          9      |            0.23s  |            0.00s  |            0.23s  |             10     |      4.55
   -------------------------------------------------------------------------------------------------------------
        total    |           14.71s  |            0.02s  |           14.74s  |           3536     |     94.39
   -------------------------------------------------------------------------------------------------------------

   ---------------------------------------------------------------
                    MBE-FCI energy (root = 0)                     
   ---------------------------------------------------------------
      MBE order  |     total energy     |    correlation energy
   ---------------------------------------------------------------
         ref     |      -75.983847      |       0.00000e+00
   ---------------------------------------------------------------
          2      |      -76.028306      |      -4.44594e-02
          3      |      -76.058301      |      -7.44548e-02
          4      |      -76.138470      |      -1.54624e-01
          5      |      -76.126740      |      -1.42893e-01
          6      |      -76.116377      |      -1.32530e-01
          7      |      -76.119331      |      -1.35484e-01
          8      |      -76.119861      |      -1.36014e-01
          9      |      -76.119653      |      -1.35806e-01
   ---------------------------------------------------------------

